{
  "type": "FeatureCollection",
  "features": [
    {
      "type": "Feature",
      "properties": {
        "nome": "Aprilia",
        "reg": "12",
        "pro": "059",
        "com": "001",
        "numinc_urbana": "2619",
        "numinc_extraurbana": "2674",
        "numinc_autostrada": "1",
        "numinc_totali": "5294"
      },
      "geometry": {
        "type": "Point",
        "coordinates": [
          12.6511,
          41.5906
        ]
      }
    },
    {
      "type": "Feature",
      "properties": {
        "nome": "Bassiano",
        "reg": "12",
        "pro": "059",
        "com": "002",
        "numinc_urbana": "4",
        "numinc_extraurbana": "22",
        "numinc_autostrada": "0",
        "numinc_totali": "26"
      },
      "geometry": {
        "type": "Point",
        "coordinates": [
          13.0322,
          41.5505
        ]
      }
    },
    {
      "type": "Feature",
      "properties": {
        "nome": "Campodimele",
        "reg": "12",
        "pro": "059",
        "com": "003",
        "numinc_urbana": "6",
        "numinc_extraurbana": "8",
        "numinc_autostrada": "0",
        "numinc_totali": "14"
      },
      "geometry": {
        "type": "Point",
        "coordinates": [
          13.5322,
          41.3872
        ]
      }
    },
    {
      "type": "Feature",
      "properties": {
        "nome": "Castelforte",
        "reg": "12",
        "pro": "059",
        "com": "004",
        "numinc_urbana": "47",
        "numinc_extraurbana": "30",
        "numinc_autostrada": "0",
        "numinc_totali": "77"
      },
      "geometry": {
        "type": "Point",
        "coordinates": [
          13.8196,
          41.3016
        ]
      }
    },
    {
      "type": "Feature",
      "properties": {
        "nome": "Cisterna di Latina",
        "reg": "12",
        "pro": "059",
        "com": "005",
        "numinc_urbana": "886",
        "numinc_extraurbana": "612",
        "numinc_autostrada": "0",
        "numinc_totali": "1498"
      },
      "geometry": {
        "type": "Point",
        "coordinates": [
          12.8263,
          41.5944
        ]
      }
    },
    {
      "type": "Feature",
      "properties": {
        "nome": "Cori",
        "reg": "12",
        "pro": "059",
        "com": "006",
        "numinc_urbana": "181",
        "numinc_extraurbana": "142",
        "numinc_autostrada": "0",
        "numinc_totali": "323"
      },
      "geometry": {
        "type": "Point",
        "coordinates": [
          12.9157,
          41.6426
        ]
      }
    },
    {
      "type": "Feature",
      "properties": {
        "nome": "Fondi",
        "reg": "12",
        "pro": "059",
        "com": "007",
        "numinc_urbana": "1534",
        "numinc_extraurbana": "937",
        "numinc_autostrada": "0",
        "numinc_totali": "2471"
      },
      "geometry": {
        "type": "Point",
        "coordinates": [
          13.4324,
          41.3552
        ]
      }
    },
    {
      "type": "Feature",
      "properties": {
        "nome": "Formia",
        "reg": "12",
        "pro": "059",
        "com": "008",
        "numinc_urbana": "2113",
        "numinc_extraurbana": "446",
        "numinc_autostrada": "0",
        "numinc_totali": "2559"
      },
      "geometry": {
        "type": "Point",
        "coordinates": [
          13.6059,
          41.2564
        ]
      }
    },
    {
      "type": "Feature",
      "properties": {
        "nome": "Gaeta",
        "reg": "12",
        "pro": "059",
        "com": "009",
        "numinc_urbana": "1499",
        "numinc_extraurbana": "287",
        "numinc_autostrada": "0",
        "numinc_totali": "1786"
      },
      "geometry": {
        "type": "Point",
        "coordinates": [
          13.571,
          41.2141
        ]
      }
    },
    {
      "type": "Feature",
      "properties": {
        "nome": "Itri",
        "reg": "12",
        "pro": "059",
        "com": "010",
        "numinc_urbana": "87",
        "numinc_extraurbana": "117",
        "numinc_autostrada": "0",
        "numinc_totali": "204"
      },
      "geometry": {
        "type": "Point",
        "coordinates": [
          13.5274,
          41.2903
        ]
      }
    },
    {
      "type": "Feature",
      "properties": {
        "nome": "Latina",
        "reg": "12",
        "pro": "059",
        "com": "011",
        "numinc_urbana": "7425",
        "numinc_extraurbana": "3640",
        "numinc_autostrada": "0",
        "numinc_totali": "11065"
      },
      "geometry": {
        "type": "Point",
        "coordinates": [
          12.9037,
          41.4676
        ]
      }
    },
    {
      "type": "Feature",
      "properties": {
        "nome": "Lenola",
        "reg": "12",
        "pro": "059",
        "com": "012",
        "numinc_urbana": "68",
        "numinc_extraurbana": "45",
        "numinc_autostrada": "0",
        "numinc_totali": "113"
      },
      "geometry": {
        "type": "Point",
        "coordinates": [
          13.4613,
          41.4087
        ]
      }
    },
    {
      "type": "Feature",
      "properties": {
        "nome": "Maenza",
        "reg": "12",
        "pro": "059",
        "com": "013",
        "numinc_urbana": "20",
        "numinc_extraurbana": "65",
        "numinc_autostrada": "0",
        "numinc_totali": "85"
      },
      "geometry": {
        "type": "Point",
        "coordinates": [
          13.1821,
          41.5229
        ]
      }
    },
    {
      "type": "Feature",
      "properties": {
        "nome": "Minturno",
        "reg": "12",
        "pro": "059",
        "com": "014",
        "numinc_urbana": "597",
        "numinc_extraurbana": "187",
        "numinc_autostrada": "0",
        "numinc_totali": "784"
      },
      "geometry": {
        "type": "Point",
        "coordinates": [
          13.7465,
          41.2624
        ]
      }
    },
    {
      "type": "Feature",
      "properties": {
        "nome": "Monte San Biagio",
        "reg": "12",
        "pro": "059",
        "com": "015",
        "numinc_urbana": "73",
        "numinc_extraurbana": "153",
        "numinc_autostrada": "0",
        "numinc_totali": "226"
      },
      "geometry": {
        "type": "Point",
        "coordinates": [
          13.3528,
          41.3533
        ]
      }
    },
    {
      "type": "Feature",
      "properties": {
        "nome": "Norma",
        "reg": "12",
        "pro": "059",
        "com": "016",
        "numinc_urbana": "10",
        "numinc_extraurbana": "18",
        "numinc_autostrada": "0",
        "numinc_totali": "28"
      },
      "geometry": {
        "type": "Point",
        "coordinates": [
          12.9703,
          41.5891
        ]
      }
    },
    {
      "type": "Feature",
      "properties": {
        "nome": "Pontinia",
        "reg": "12",
        "pro": "059",
        "com": "017",
        "numinc_urbana": "195",
        "numinc_extraurbana": "775",
        "numinc_autostrada": "0",
        "numinc_totali": "970"
      },
      "geometry": {
        "type": "Point",
        "coordinates": [
          13.0445,
          41.408
        ]
      }
    },
    {
      "type": "Feature",
      "properties": {
        "nome": "Ponza",
        "reg": "12",
        "pro": "059",
        "com": "018",
        "numinc_urbana": "7",
        "numinc_extraurbana": "11",
        "numinc_autostrada": "0",
        "numinc_totali": "18"
      },
      "geometry": {
        "type": "Point",
        "coordinates": [
          12.9664,
          40.8945
        ]
      }
    },
    {
      "type": "Feature",
      "properties": {
        "nome": "Priverno",
        "reg": "12",
        "pro": "059",
        "com": "019",
        "numinc_urbana": "229",
        "numinc_extraurbana": "431",
        "numinc_autostrada": "0",
        "numinc_totali": "660"
      },
      "geometry": {
        "type": "Point",
        "coordinates": [
          13.1817,
          41.4734
        ]
      }
    },
    {
      "type": "Feature",
      "properties": {
        "nome": "Prossedi",
        "reg": "12",
        "pro": "059",
        "com": "020",
        "numinc_urbana": "12",
        "numinc_extraurbana": "99",
        "numinc_autostrada": "0",
        "numinc_totali": "111"
      },
      "geometry": {
        "type": "Point",
        "coordinates": [
          13.2617,
          41.5174
        ]
      }
    },
    {
      "type": "Feature",
      "properties": {
        "nome": "Roccagorga",
        "reg": "12",
        "pro": "059",
        "com": "021",
        "numinc_urbana": "26",
        "numinc_extraurbana": "33",
        "numinc_autostrada": "0",
        "numinc_totali": "59"
      },
      "geometry": {
        "type": "Point",
        "coordinates": [
          13.1561,
          41.5263
        ]
      }
    },
    {
      "type": "Feature",
      "properties": {
        "nome": "Rocca Massima",
        "reg": "12",
        "pro": "059",
        "com": "022",
        "numinc_urbana": "4",
        "numinc_extraurbana": "4",
        "numinc_autostrada": "0",
        "numinc_totali": "8"
      },
      "geometry": {
        "type": "Point",
        "coordinates": [
          12.9203,
          41.6803
        ]
      }
    },
    {
      "type": "Feature",
      "properties": {
        "nome": "Roccasecca dei Volsci",
        "reg": "12",
        "pro": "059",
        "com": "023",
        "numinc_urbana": "32",
        "numinc_extraurbana": "35",
        "numinc_autostrada": "0",
        "numinc_totali": "67"
      },
      "geometry": {
        "type": "Point",
        "coordinates": [
          13.2146,
          41.4799
        ]
      }
    },
    {
      "type": "Feature",
      "properties": {
        "nome": "Sabaudia",
        "reg": "12",
        "pro": "059",
        "com": "024",
        "numinc_urbana": "567",
        "numinc_extraurbana": "850",
        "numinc_autostrada": "0",
        "numinc_totali": "1417"
      },
      "geometry": {
        "type": "Point",
        "coordinates": [
          13.0247,
          41.2999
        ]
      }
    },
    {
      "type": "Feature",
      "properties": {
        "nome": "San Felice Circeo",
        "reg": "12",
        "pro": "059",
        "com": "025",
        "numinc_urbana": "289",
        "numinc_extraurbana": "126",
        "numinc_autostrada": "0",
        "numinc_totali": "415"
      },
      "geometry": {
        "type": "Point",
        "coordinates": [
          13.0963,
          41.2356
        ]
      }
    },
    {
      "type": "Feature",
      "properties": {
        "nome": "Santi Cosma e Damiano",
        "reg": "12",
        "pro": "059",
        "com": "026",
        "numinc_urbana": "183",
        "numinc_extraurbana": "63",
        "numinc_autostrada": "0",
        "numinc_totali": "246"
      },
      "geometry": {
        "type": "Point",
        "coordinates": [
          13.8139,
          41.301
        ]
      }
    },
    {
      "type": "Feature",
      "properties": {
        "nome": "Sermoneta",
        "reg": "12",
        "pro": "059",
        "com": "027",
        "numinc_urbana": "44",
        "numinc_extraurbana": "97",
        "numinc_autostrada": "0",
        "numinc_totali": "141"
      },
      "geometry": {
        "type": "Point",
        "coordinates": [
          12.986,
          41.5503
        ]
      }
    },
    {
      "type": "Feature",
      "properties": {
        "nome": "Sezze",
        "reg": "12",
        "pro": "059",
        "com": "028",
        "numinc_urbana": "249",
        "numinc_extraurbana": "372",
        "numinc_autostrada": "0",
        "numinc_totali": "621"
      },
      "geometry": {
        "type": "Point",
        "coordinates": [
          13.0589,
          41.4986
        ]
      }
    },
    {
      "type": "Feature",
      "properties": {
        "nome": "Sonnino",
        "reg": "12",
        "pro": "059",
        "com": "029",
        "numinc_urbana": "43",
        "numinc_extraurbana": "112",
        "numinc_autostrada": "0",
        "numinc_totali": "155"
      },
      "geometry": {
        "type": "Point",
        "coordinates": [
          13.2458,
          41.4145
        ]
      }
    },
    {
      "type": "Feature",
      "properties": {
        "nome": "Sperlonga",
        "reg": "12",
        "pro": "059",
        "com": "030",
        "numinc_urbana": "47",
        "numinc_extraurbana": "179",
        "numinc_autostrada": "0",
        "numinc_totali": "226"
      },
      "geometry": {
        "type": "Point",
        "coordinates": [
          13.4341,
          41.259
        ]
      }
    },
    {
      "type": "Feature",
      "properties": {
        "nome": "Spigno Saturnia",
        "reg": "12",
        "pro": "059",
        "com": "031",
        "numinc_urbana": "32",
        "numinc_extraurbana": "58",
        "numinc_autostrada": "0",
        "numinc_totali": "90"
      },
      "geometry": {
        "type": "Point",
        "coordinates": [
          13.7341,
          41.3053
        ]
      }
    },
    {
      "type": "Feature",
      "properties": {
        "nome": "Terracina",
        "reg": "12",
        "pro": "059",
        "com": "032",
        "numinc_urbana": "1987",
        "numinc_extraurbana": "1535",
        "numinc_autostrada": "0",
        "numinc_totali": "3522"
      },
      "geometry": {
        "type": "Point",
        "coordinates": [
          13.2489,
          41.2912
        ]
      }
    },
    {
      "type": "Feature",
      "properties": {
        "nome": "Ventotene",
        "reg": "12",
        "pro": "059",
        "com": "033",
        "numinc_urbana": "1",
        "numinc_extraurbana": "0",
        "numinc_autostrada": "0",
        "numinc_totali": "1"
      },
      "geometry": {
        "type": "Point",
        "coordinates": [
          13.4322,
          40.797
        ]
      }
    }
  ]
}