{
  "type": "FeatureCollection",
  "features": [
    {
      "type": "Feature",
      "properties": {
        "nome": "Acquapendente",
        "reg": "12",
        "pro": "056",
        "com": "001",
        "n_inc": "203",
        "p_inc": "203"
      },
      "geometry": {
        "type": "Point",
        "coordinates": [
          11.8652,
          42.7449
        ]
      }
    },
    {
      "type": "Feature",
      "properties": {
        "nome": "Arlena di Castro",
        "reg": "12",
        "pro": "056",
        "com": "002",
        "n_inc": "3",
        "p_inc": "3"
      },
      "geometry": {
        "type": "Point",
        "coordinates": [
          11.8218,
          42.4639
        ]
      }
    },
    {
      "type": "Feature",
      "properties": {
        "nome": "Bagnoregio",
        "reg": "12",
        "pro": "056",
        "com": "003",
        "n_inc": "73",
        "p_inc": "73"
      },
      "geometry": {
        "type": "Point",
        "coordinates": [
          12.0903,
          42.6272
        ]
      }
    },
    {
      "type": "Feature",
      "properties": {
        "nome": "Barbarano Romano",
        "reg": "12",
        "pro": "056",
        "com": "004",
        "n_inc": "34",
        "p_inc": "34"
      },
      "geometry": {
        "type": "Point",
        "coordinates": [
          12.0666,
          42.2501
        ]
      }
    },
    {
      "type": "Feature",
      "properties": {
        "nome": "Bassano Romano",
        "reg": "12",
        "pro": "056",
        "com": "005",
        "n_inc": "146",
        "p_inc": "146"
      },
      "geometry": {
        "type": "Point",
        "coordinates": [
          12.1923,
          42.2181
        ]
      }
    },
    {
      "type": "Feature",
      "properties": {
        "nome": "Bassano in Teverina",
        "reg": "12",
        "pro": "056",
        "com": "006",
        "n_inc": "16",
        "p_inc": "16"
      },
      "geometry": {
        "type": "Point",
        "coordinates": [
          12.3106,
          42.4655
        ]
      }
    },
    {
      "type": "Feature",
      "properties": {
        "nome": "Blera",
        "reg": "12",
        "pro": "056",
        "com": "007",
        "n_inc": "25",
        "p_inc": "25"
      },
      "geometry": {
        "type": "Point",
        "coordinates": [
          12.0275,
          42.2727
        ]
      }
    },
    {
      "type": "Feature",
      "properties": {
        "nome": "Bolsena",
        "reg": "12",
        "pro": "056",
        "com": "008",
        "n_inc": "78",
        "p_inc": "78"
      },
      "geometry": {
        "type": "Point",
        "coordinates": [
          11.9861,
          42.6449
        ]
      }
    },
    {
      "type": "Feature",
      "properties": {
        "nome": "Bomarzo",
        "reg": "12",
        "pro": "056",
        "com": "009",
        "n_inc": "72",
        "p_inc": "72"
      },
      "geometry": {
        "type": "Point",
        "coordinates": [
          12.2504,
          42.4871
        ]
      }
    },
    {
      "type": "Feature",
      "properties": {
        "nome": "Calcata",
        "reg": "12",
        "pro": "056",
        "com": "010",
        "n_inc": "5",
        "p_inc": "5"
      },
      "geometry": {
        "type": "Point",
        "coordinates": [
          12.4265,
          42.2193
        ]
      }
    },
    {
      "type": "Feature",
      "properties": {
        "nome": "Canepina",
        "reg": "12",
        "pro": "056",
        "com": "011",
        "n_inc": "45",
        "p_inc": "45"
      },
      "geometry": {
        "type": "Point",
        "coordinates": [
          12.233,
          42.3833
        ]
      }
    },
    {
      "type": "Feature",
      "properties": {
        "nome": "Canino",
        "reg": "12",
        "pro": "056",
        "com": "012",
        "n_inc": "68",
        "p_inc": "68"
      },
      "geometry": {
        "type": "Point",
        "coordinates": [
          11.7522,
          42.465
        ]
      }
    },
    {
      "type": "Feature",
      "properties": {
        "nome": "Capodimonte",
        "reg": "12",
        "pro": "056",
        "com": "013",
        "n_inc": "94",
        "p_inc": "94"
      },
      "geometry": {
        "type": "Point",
        "coordinates": [
          11.9058,
          42.5475
        ]
      }
    },
    {
      "type": "Feature",
      "properties": {
        "nome": "Capranica",
        "reg": "12",
        "pro": "056",
        "com": "014",
        "n_inc": "211",
        "p_inc": "211"
      },
      "geometry": {
        "type": "Point",
        "coordinates": [
          12.1731,
          42.2599
        ]
      }
    },
    {
      "type": "Feature",
      "properties": {
        "nome": "Caprarola",
        "reg": "12",
        "pro": "056",
        "com": "015",
        "n_inc": "212",
        "p_inc": "212"
      },
      "geometry": {
        "type": "Point",
        "coordinates": [
          12.2426,
          42.3241
        ]
      }
    },
    {
      "type": "Feature",
      "properties": {
        "nome": "Carbognano",
        "reg": "12",
        "pro": "056",
        "com": "016",
        "n_inc": "48",
        "p_inc": "48"
      },
      "geometry": {
        "type": "Point",
        "coordinates": [
          12.2653,
          42.3327
        ]
      }
    },
    {
      "type": "Feature",
      "properties": {
        "nome": "Castel Sant'Elia",
        "reg": "12",
        "pro": "056",
        "com": "017",
        "n_inc": "39",
        "p_inc": "39"
      },
      "geometry": {
        "type": "Point",
        "coordinates": [
          12.3701,
          42.2505
        ]
      }
    },
    {
      "type": "Feature",
      "properties": {
        "nome": "Castiglione in Teverina",
        "reg": "12",
        "pro": "056",
        "com": "018",
        "n_inc": "33",
        "p_inc": "33"
      },
      "geometry": {
        "type": "Point",
        "coordinates": [
          12.2044,
          42.6489
        ]
      }
    },
    {
      "type": "Feature",
      "properties": {
        "nome": "Celleno",
        "reg": "12",
        "pro": "056",
        "com": "019",
        "n_inc": "10",
        "p_inc": "10"
      },
      "geometry": {
        "type": "Point",
        "coordinates": [
          12.1259,
          42.5595
        ]
      }
    },
    {
      "type": "Feature",
      "properties": {
        "nome": "Cellere",
        "reg": "12",
        "pro": "056",
        "com": "020",
        "n_inc": "35",
        "p_inc": "35"
      },
      "geometry": {
        "type": "Point",
        "coordinates": [
          11.7727,
          42.5114
        ]
      }
    },
    {
      "type": "Feature",
      "properties": {
        "nome": "Civita Castellana",
        "reg": "12",
        "pro": "056",
        "com": "021",
        "n_inc": "426",
        "p_inc": "426"
      },
      "geometry": {
        "type": "Point",
        "coordinates": [
          12.4115,
          42.2888
        ]
      }
    },
    {
      "type": "Feature",
      "properties": {
        "nome": "Civitella d'Agliano",
        "reg": "12",
        "pro": "056",
        "com": "022",
        "n_inc": "88",
        "p_inc": "88"
      },
      "geometry": {
        "type": "Point",
        "coordinates": [
          12.188,
          42.6042
        ]
      }
    },
    {
      "type": "Feature",
      "properties": {
        "nome": "Corchiano",
        "reg": "12",
        "pro": "056",
        "com": "023",
        "n_inc": "64",
        "p_inc": "64"
      },
      "geometry": {
        "type": "Point",
        "coordinates": [
          12.3567,
          42.3459
        ]
      }
    },
    {
      "type": "Feature",
      "properties": {
        "nome": "Fabrica di Roma",
        "reg": "12",
        "pro": "056",
        "com": "024",
        "n_inc": "177",
        "p_inc": "177"
      },
      "geometry": {
        "type": "Point",
        "coordinates": [
          12.2999,
          42.3338
        ]
      }
    },
    {
      "type": "Feature",
      "properties": {
        "nome": "Faleria",
        "reg": "12",
        "pro": "056",
        "com": "025",
        "n_inc": "35",
        "p_inc": "35"
      },
      "geometry": {
        "type": "Point",
        "coordinates": [
          12.4464,
          42.2275
        ]
      }
    },
    {
      "type": "Feature",
      "properties": {
        "nome": "Farnese",
        "reg": "12",
        "pro": "056",
        "com": "026",
        "n_inc": "6",
        "p_inc": "6"
      },
      "geometry": {
        "type": "Point",
        "coordinates": [
          11.7267,
          42.5505
        ]
      }
    },
    {
      "type": "Feature",
      "properties": {
        "nome": "Gallese",
        "reg": "12",
        "pro": "056",
        "com": "027",
        "n_inc": "32",
        "p_inc": "32"
      },
      "geometry": {
        "type": "Point",
        "coordinates": [
          12.4032,
          42.3726
        ]
      }
    },
    {
      "type": "Feature",
      "properties": {
        "nome": "Gradoli",
        "reg": "12",
        "pro": "056",
        "com": "028",
        "n_inc": "21",
        "p_inc": "21"
      },
      "geometry": {
        "type": "Point",
        "coordinates": [
          11.856,
          42.6445
        ]
      }
    },
    {
      "type": "Feature",
      "properties": {
        "nome": "Graffignano",
        "reg": "12",
        "pro": "056",
        "com": "029",
        "n_inc": "58",
        "p_inc": "58"
      },
      "geometry": {
        "type": "Point",
        "coordinates": [
          12.2027,
          42.5736
        ]
      }
    },
    {
      "type": "Feature",
      "properties": {
        "nome": "Grotte di Castro",
        "reg": "12",
        "pro": "056",
        "com": "030",
        "n_inc": "58",
        "p_inc": "58"
      },
      "geometry": {
        "type": "Point",
        "coordinates": [
          11.8696,
          42.6749
        ]
      }
    },
    {
      "type": "Feature",
      "properties": {
        "nome": "Ischia di Castro",
        "reg": "12",
        "pro": "056",
        "com": "031",
        "n_inc": "11",
        "p_inc": "11"
      },
      "geometry": {
        "type": "Point",
        "coordinates": [
          11.7574,
          42.545
        ]
      }
    },
    {
      "type": "Feature",
      "properties": {
        "nome": "Latera",
        "reg": "12",
        "pro": "056",
        "com": "032",
        "n_inc": "49",
        "p_inc": "49"
      },
      "geometry": {
        "type": "Point",
        "coordinates": [
          11.8284,
          42.63
        ]
      }
    },
    {
      "type": "Feature",
      "properties": {
        "nome": "Lubriano",
        "reg": "12",
        "pro": "056",
        "com": "033",
        "n_inc": "4",
        "p_inc": "4"
      },
      "geometry": {
        "type": "Point",
        "coordinates": [
          12.1116,
          42.6364
        ]
      }
    },
    {
      "type": "Feature",
      "properties": {
        "nome": "Marta",
        "reg": "12",
        "pro": "056",
        "com": "034",
        "n_inc": "133",
        "p_inc": "133"
      },
      "geometry": {
        "type": "Point",
        "coordinates": [
          11.8638,
          42.4408
        ]
      }
    },
    {
      "type": "Feature",
      "properties": {
        "nome": "Montalto di Castro",
        "reg": "12",
        "pro": "056",
        "com": "035",
        "n_inc": "288",
        "p_inc": "288"
      },
      "geometry": {
        "type": "Point",
        "coordinates": [
          11.608,
          42.3514
        ]
      }
    },
    {
      "type": "Feature",
      "properties": {
        "nome": "Montefiascone",
        "reg": "12",
        "pro": "056",
        "com": "036",
        "n_inc": "423",
        "p_inc": "423"
      },
      "geometry": {
        "type": "Point",
        "coordinates": [
          12.0364,
          42.538
        ]
      }
    },
    {
      "type": "Feature",
      "properties": {
        "nome": "Monte Romano",
        "reg": "12",
        "pro": "056",
        "com": "037",
        "n_inc": "71",
        "p_inc": "71"
      },
      "geometry": {
        "type": "Point",
        "coordinates": [
          11.8952,
          42.2683
        ]
      }
    },
    {
      "type": "Feature",
      "properties": {
        "nome": "Monterosi",
        "reg": "12",
        "pro": "056",
        "com": "038",
        "n_inc": "66",
        "p_inc": "66"
      },
      "geometry": {
        "type": "Point",
        "coordinates": [
          12.3104,
          42.1949
        ]
      }
    },
    {
      "type": "Feature",
      "properties": {
        "nome": "Nepi",
        "reg": "12",
        "pro": "056",
        "com": "039",
        "n_inc": "629",
        "p_inc": "629"
      },
      "geometry": {
        "type": "Point",
        "coordinates": [
          12.3466,
          42.2439
        ]
      }
    },
    {
      "type": "Feature",
      "properties": {
        "nome": "Onano",
        "reg": "12",
        "pro": "056",
        "com": "040",
        "n_inc": "16",
        "p_inc": "16"
      },
      "geometry": {
        "type": "Point",
        "coordinates": [
          11.8166,
          42.6923
        ]
      }
    },
    {
      "type": "Feature",
      "properties": {
        "nome": "Oriolo Romano",
        "reg": "12",
        "pro": "056",
        "com": "041",
        "n_inc": "58",
        "p_inc": "58"
      },
      "geometry": {
        "type": "Point",
        "coordinates": [
          12.1389,
          42.1592
        ]
      }
    },
    {
      "type": "Feature",
      "properties": {
        "nome": "Orte",
        "reg": "12",
        "pro": "056",
        "com": "042",
        "n_inc": "598",
        "p_inc": "598"
      },
      "geometry": {
        "type": "Point",
        "coordinates": [
          12.3864,
          42.4603
        ]
      }
    },
    {
      "type": "Feature",
      "properties": {
        "nome": "Piansano",
        "reg": "12",
        "pro": "056",
        "com": "043",
        "n_inc": "19",
        "p_inc": "19"
      },
      "geometry": {
        "type": "Point",
        "coordinates": [
          11.8302,
          42.5233
        ]
      }
    },
    {
      "type": "Feature",
      "properties": {
        "nome": "Proceno",
        "reg": "12",
        "pro": "056",
        "com": "044",
        "n_inc": "9",
        "p_inc": "9"
      },
      "geometry": {
        "type": "Point",
        "coordinates": [
          11.8306,
          42.7583
        ]
      }
    },
    {
      "type": "Feature",
      "properties": {
        "nome": "Ronciglione",
        "reg": "12",
        "pro": "056",
        "com": "045",
        "n_inc": "418",
        "p_inc": "418"
      },
      "geometry": {
        "type": "Point",
        "coordinates": [
          12.2142,
          42.2914
        ]
      }
    },
    {
      "type": "Feature",
      "properties": {
        "nome": "Villa San Giovanni in Tuscia",
        "reg": "12",
        "pro": "056",
        "com": "046",
        "n_inc": "3",
        "p_inc": "3"
      },
      "geometry": {
        "type": "Point",
        "coordinates": [
          12.0553,
          42.283
        ]
      }
    },
    {
      "type": "Feature",
      "properties": {
        "nome": "San Lorenzo Nuovo",
        "reg": "12",
        "pro": "056",
        "com": "047",
        "n_inc": "73",
        "p_inc": "73"
      },
      "geometry": {
        "type": "Point",
        "coordinates": [
          11.906,
          42.6863
        ]
      }
    },
    {
      "type": "Feature",
      "properties": {
        "nome": "Soriano nel Cimino",
        "reg": "12",
        "pro": "056",
        "com": "048",
        "n_inc": "216",
        "p_inc": "216"
      },
      "geometry": {
        "type": "Point",
        "coordinates": [
          12.2344,
          42.4199
        ]
      }
    },
    {
      "type": "Feature",
      "properties": {
        "nome": "Sutri",
        "reg": "12",
        "pro": "056",
        "com": "049",
        "n_inc": "346",
        "p_inc": "346"
      },
      "geometry": {
        "type": "Point",
        "coordinates": [
          12.2204,
          42.2427
        ]
      }
    },
    {
      "type": "Feature",
      "properties": {
        "nome": "Tarquinia",
        "reg": "12",
        "pro": "056",
        "com": "050",
        "n_inc": "809",
        "p_inc": "809"
      },
      "geometry": {
        "type": "Point",
        "coordinates": [
          11.7585,
          42.2547
        ]
      }
    },
    {
      "type": "Feature",
      "properties": {
        "nome": "Tessennano",
        "reg": "12",
        "pro": "056",
        "com": "051",
        "n_inc": "4",
        "p_inc": "4"
      },
      "geometry": {
        "type": "Point",
        "coordinates": [
          11.7914,
          42.4794
        ]
      }
    },
    {
      "type": "Feature",
      "properties": {
        "nome": "Tuscania",
        "reg": "12",
        "pro": "056",
        "com": "052",
        "n_inc": "145",
        "p_inc": "145"
      },
      "geometry": {
        "type": "Point",
        "coordinates": [
          11.8703,
          42.4192
        ]
      }
    },
    {
      "type": "Feature",
      "properties": {
        "nome": "Valentano",
        "reg": "12",
        "pro": "056",
        "com": "053",
        "n_inc": "71",
        "p_inc": "71"
      },
      "geometry": {
        "type": "Point",
        "coordinates": [
          11.8183,
          42.5664
        ]
      }
    },
    {
      "type": "Feature",
      "properties": {
        "nome": "Vallerano",
        "reg": "12",
        "pro": "056",
        "com": "054",
        "n_inc": "16",
        "p_inc": "16"
      },
      "geometry": {
        "type": "Point",
        "coordinates": [
          12.2646,
          42.385
        ]
      }
    },
    {
      "type": "Feature",
      "properties": {
        "nome": "Vasanello",
        "reg": "12",
        "pro": "056",
        "com": "055",
        "n_inc": "31",
        "p_inc": "31"
      },
      "geometry": {
        "type": "Point",
        "coordinates": [
          12.3475,
          42.4149
        ]
      }
    },
    {
      "type": "Feature",
      "properties": {
        "nome": "Vejano",
        "reg": "12",
        "pro": "056",
        "com": "056",
        "n_inc": "41",
        "p_inc": "41"
      },
      "geometry": {
        "type": "Point",
        "coordinates": [
          12.0966,
          42.2183
        ]
      }
    },
    {
      "type": "Feature",
      "properties": {
        "nome": "Vetralla",
        "reg": "12",
        "pro": "056",
        "com": "057",
        "n_inc": "470",
        "p_inc": "470"
      },
      "geometry": {
        "type": "Point",
        "coordinates": [
          12.0532,
          42.3209
        ]
      }
    },
    {
      "type": "Feature",
      "properties": {
        "nome": "Vignanello",
        "reg": "12",
        "pro": "056",
        "com": "058",
        "n_inc": "62",
        "p_inc": "62"
      },
      "geometry": {
        "type": "Point",
        "coordinates": [
          12.2771,
          42.3836
        ]
      }
    },
    {
      "type": "Feature",
      "properties": {
        "nome": "Viterbo",
        "reg": "12",
        "pro": "056",
        "com": "059",
        "n_inc": "6123",
        "p_inc": "6123"
      },
      "geometry": {
        "type": "Point",
        "coordinates": [
          12.1049,
          42.4174
        ]
      }
    },
    {
      "type": "Feature",
      "properties": {
        "nome": "Vitorchiano",
        "reg": "12",
        "pro": "056",
        "com": "060",
        "n_inc": "88",
        "p_inc": "88"
      },
      "geometry": {
        "type": "Point",
        "coordinates": [
          12.1734,
          42.4664
        ]
      }
    }
  ]
}