{
  "type": "FeatureCollection",
  "features": [
    {
      "type": "Feature",
      "properties": {
        "nome": "Aprilia",
        "reg": "12",
        "pro": "059",
        "com": "001",
        "n_inc": "5294",
        "p_inc": "5294"
      },
      "geometry": {
        "type": "Point",
        "coordinates": [
          12.6511,
          41.5906
        ]
      }
    },
    {
      "type": "Feature",
      "properties": {
        "nome": "Bassiano",
        "reg": "12",
        "pro": "059",
        "com": "002",
        "n_inc": "26",
        "p_inc": "26"
      },
      "geometry": {
        "type": "Point",
        "coordinates": [
          13.0322,
          41.5505
        ]
      }
    },
    {
      "type": "Feature",
      "properties": {
        "nome": "Campodimele",
        "reg": "12",
        "pro": "059",
        "com": "003",
        "n_inc": "14",
        "p_inc": "14"
      },
      "geometry": {
        "type": "Point",
        "coordinates": [
          13.5322,
          41.3872
        ]
      }
    },
    {
      "type": "Feature",
      "properties": {
        "nome": "Castelforte",
        "reg": "12",
        "pro": "059",
        "com": "004",
        "n_inc": "77",
        "p_inc": "77"
      },
      "geometry": {
        "type": "Point",
        "coordinates": [
          13.8196,
          41.3016
        ]
      }
    },
    {
      "type": "Feature",
      "properties": {
        "nome": "Cisterna di Latina",
        "reg": "12",
        "pro": "059",
        "com": "005",
        "n_inc": "1498",
        "p_inc": "1498"
      },
      "geometry": {
        "type": "Point",
        "coordinates": [
          12.8263,
          41.5944
        ]
      }
    },
    {
      "type": "Feature",
      "properties": {
        "nome": "Cori",
        "reg": "12",
        "pro": "059",
        "com": "006",
        "n_inc": "323",
        "p_inc": "323"
      },
      "geometry": {
        "type": "Point",
        "coordinates": [
          12.9157,
          41.6426
        ]
      }
    },
    {
      "type": "Feature",
      "properties": {
        "nome": "Fondi",
        "reg": "12",
        "pro": "059",
        "com": "007",
        "n_inc": "2471",
        "p_inc": "2471"
      },
      "geometry": {
        "type": "Point",
        "coordinates": [
          13.4324,
          41.3552
        ]
      }
    },
    {
      "type": "Feature",
      "properties": {
        "nome": "Formia",
        "reg": "12",
        "pro": "059",
        "com": "008",
        "n_inc": "2559",
        "p_inc": "2559"
      },
      "geometry": {
        "type": "Point",
        "coordinates": [
          13.6059,
          41.2564
        ]
      }
    },
    {
      "type": "Feature",
      "properties": {
        "nome": "Gaeta",
        "reg": "12",
        "pro": "059",
        "com": "009",
        "n_inc": "1786",
        "p_inc": "1786"
      },
      "geometry": {
        "type": "Point",
        "coordinates": [
          13.571,
          41.2141
        ]
      }
    },
    {
      "type": "Feature",
      "properties": {
        "nome": "Itri",
        "reg": "12",
        "pro": "059",
        "com": "010",
        "n_inc": "204",
        "p_inc": "204"
      },
      "geometry": {
        "type": "Point",
        "coordinates": [
          13.5274,
          41.2903
        ]
      }
    },
    {
      "type": "Feature",
      "properties": {
        "nome": "Latina",
        "reg": "12",
        "pro": "059",
        "com": "011",
        "n_inc": "11065",
        "p_inc": "11065"
      },
      "geometry": {
        "type": "Point",
        "coordinates": [
          12.9037,
          41.4676
        ]
      }
    },
    {
      "type": "Feature",
      "properties": {
        "nome": "Lenola",
        "reg": "12",
        "pro": "059",
        "com": "012",
        "n_inc": "113",
        "p_inc": "113"
      },
      "geometry": {
        "type": "Point",
        "coordinates": [
          13.4613,
          41.4087
        ]
      }
    },
    {
      "type": "Feature",
      "properties": {
        "nome": "Maenza",
        "reg": "12",
        "pro": "059",
        "com": "013",
        "n_inc": "85",
        "p_inc": "85"
      },
      "geometry": {
        "type": "Point",
        "coordinates": [
          13.1821,
          41.5229
        ]
      }
    },
    {
      "type": "Feature",
      "properties": {
        "nome": "Minturno",
        "reg": "12",
        "pro": "059",
        "com": "014",
        "n_inc": "784",
        "p_inc": "784"
      },
      "geometry": {
        "type": "Point",
        "coordinates": [
          13.7465,
          41.2624
        ]
      }
    },
    {
      "type": "Feature",
      "properties": {
        "nome": "Monte San Biagio",
        "reg": "12",
        "pro": "059",
        "com": "015",
        "n_inc": "226",
        "p_inc": "226"
      },
      "geometry": {
        "type": "Point",
        "coordinates": [
          13.3528,
          41.3533
        ]
      }
    },
    {
      "type": "Feature",
      "properties": {
        "nome": "Norma",
        "reg": "12",
        "pro": "059",
        "com": "016",
        "n_inc": "28",
        "p_inc": "28"
      },
      "geometry": {
        "type": "Point",
        "coordinates": [
          12.9703,
          41.5891
        ]
      }
    },
    {
      "type": "Feature",
      "properties": {
        "nome": "Pontinia",
        "reg": "12",
        "pro": "059",
        "com": "017",
        "n_inc": "970",
        "p_inc": "970"
      },
      "geometry": {
        "type": "Point",
        "coordinates": [
          13.0445,
          41.408
        ]
      }
    },
    {
      "type": "Feature",
      "properties": {
        "nome": "Ponza",
        "reg": "12",
        "pro": "059",
        "com": "018",
        "n_inc": "18",
        "p_inc": "18"
      },
      "geometry": {
        "type": "Point",
        "coordinates": [
          12.9664,
          40.8945
        ]
      }
    },
    {
      "type": "Feature",
      "properties": {
        "nome": "Priverno",
        "reg": "12",
        "pro": "059",
        "com": "019",
        "n_inc": "660",
        "p_inc": "660"
      },
      "geometry": {
        "type": "Point",
        "coordinates": [
          13.1817,
          41.4734
        ]
      }
    },
    {
      "type": "Feature",
      "properties": {
        "nome": "Prossedi",
        "reg": "12",
        "pro": "059",
        "com": "020",
        "n_inc": "111",
        "p_inc": "111"
      },
      "geometry": {
        "type": "Point",
        "coordinates": [
          13.2617,
          41.5174
        ]
      }
    },
    {
      "type": "Feature",
      "properties": {
        "nome": "Roccagorga",
        "reg": "12",
        "pro": "059",
        "com": "021",
        "n_inc": "59",
        "p_inc": "59"
      },
      "geometry": {
        "type": "Point",
        "coordinates": [
          13.1561,
          41.5263
        ]
      }
    },
    {
      "type": "Feature",
      "properties": {
        "nome": "Rocca Massima",
        "reg": "12",
        "pro": "059",
        "com": "022",
        "n_inc": "8",
        "p_inc": "8"
      },
      "geometry": {
        "type": "Point",
        "coordinates": [
          12.9203,
          41.6803
        ]
      }
    },
    {
      "type": "Feature",
      "properties": {
        "nome": "Roccasecca dei Volsci",
        "reg": "12",
        "pro": "059",
        "com": "023",
        "n_inc": "67",
        "p_inc": "67"
      },
      "geometry": {
        "type": "Point",
        "coordinates": [
          13.2146,
          41.4799
        ]
      }
    },
    {
      "type": "Feature",
      "properties": {
        "nome": "Sabaudia",
        "reg": "12",
        "pro": "059",
        "com": "024",
        "n_inc": "1417",
        "p_inc": "1417"
      },
      "geometry": {
        "type": "Point",
        "coordinates": [
          13.0247,
          41.2999
        ]
      }
    },
    {
      "type": "Feature",
      "properties": {
        "nome": "San Felice Circeo",
        "reg": "12",
        "pro": "059",
        "com": "025",
        "n_inc": "415",
        "p_inc": "415"
      },
      "geometry": {
        "type": "Point",
        "coordinates": [
          13.0963,
          41.2356
        ]
      }
    },
    {
      "type": "Feature",
      "properties": {
        "nome": "Santi Cosma e Damiano",
        "reg": "12",
        "pro": "059",
        "com": "026",
        "n_inc": "246",
        "p_inc": "246"
      },
      "geometry": {
        "type": "Point",
        "coordinates": [
          13.8139,
          41.301
        ]
      }
    },
    {
      "type": "Feature",
      "properties": {
        "nome": "Sermoneta",
        "reg": "12",
        "pro": "059",
        "com": "027",
        "n_inc": "141",
        "p_inc": "141"
      },
      "geometry": {
        "type": "Point",
        "coordinates": [
          12.986,
          41.5503
        ]
      }
    },
    {
      "type": "Feature",
      "properties": {
        "nome": "Sezze",
        "reg": "12",
        "pro": "059",
        "com": "028",
        "n_inc": "621",
        "p_inc": "621"
      },
      "geometry": {
        "type": "Point",
        "coordinates": [
          13.0589,
          41.4986
        ]
      }
    },
    {
      "type": "Feature",
      "properties": {
        "nome": "Sonnino",
        "reg": "12",
        "pro": "059",
        "com": "029",
        "n_inc": "155",
        "p_inc": "155"
      },
      "geometry": {
        "type": "Point",
        "coordinates": [
          13.2458,
          41.4145
        ]
      }
    },
    {
      "type": "Feature",
      "properties": {
        "nome": "Sperlonga",
        "reg": "12",
        "pro": "059",
        "com": "030",
        "n_inc": "226",
        "p_inc": "226"
      },
      "geometry": {
        "type": "Point",
        "coordinates": [
          13.4341,
          41.259
        ]
      }
    },
    {
      "type": "Feature",
      "properties": {
        "nome": "Spigno Saturnia",
        "reg": "12",
        "pro": "059",
        "com": "031",
        "n_inc": "90",
        "p_inc": "90"
      },
      "geometry": {
        "type": "Point",
        "coordinates": [
          13.7341,
          41.3053
        ]
      }
    },
    {
      "type": "Feature",
      "properties": {
        "nome": "Terracina",
        "reg": "12",
        "pro": "059",
        "com": "032",
        "n_inc": "3522",
        "p_inc": "3522"
      },
      "geometry": {
        "type": "Point",
        "coordinates": [
          13.2489,
          41.2912
        ]
      }
    },
    {
      "type": "Feature",
      "properties": {
        "nome": "Ventotene",
        "reg": "12",
        "pro": "059",
        "com": "033",
        "n_inc": "1",
        "p_inc": "1"
      },
      "geometry": {
        "type": "Point",
        "coordinates": [
          13.4322,
          40.797
        ]
      }
    }
  ]
}